# Blender MTL File: 'None'
# Material Count: 2

newmtl vrata-les
Ns 96.078431
Ka 0.800000 0.800000 0.800000
Kd 0.640000 0.640000 0.640000
Ks 0.500000 0.500000 0.500000
Ni 1.000000
d 1.000000
illum 2
map_Kd siva.jpg

newmtl vrata-les_les_na_omari.JPG
Ns 96.078431
Ka 0.800000 0.800000 0.800000
Kd 0.640000 0.640000 0.640000
Ks 0.500000 0.500000 0.500000
Ni 1.000000
d 1.000000
illum 2
map_Kd les na omari.JPG
