# Blender MTL File: 'None'
# Material Count: 2

newmtl Stol2
Ns 96.078431
Ka 0.900000 0.900000 0.900000
Kd 0.640000 0.640000 0.640000
Ks 0.500000 0.500000 0.500000
Ni 1.000000
d 1.000000
illum 2
map_Kd siva.jpg

newmtl Stol2_siva.jpg
Ns 96.078431
Ka 0.900000 0.900000 0.900000
Kd 0.640000 0.640000 0.640000
Ks 0.500000 0.500000 0.500000
Ni 1.000000
d 1.000000
illum 2
map_Kd siva.jpg
