# Blender v2.69 (sub 0) OBJ File: ''
# www.blender.org
mtllib cilinder.mtl
o Cylinder
v -0.110733 -1.189378 -0.515869
v -0.110733 0.810622 -0.515869
v 0.084357 -1.189378 -0.496654
v 0.084357 0.810622 -0.496654
v 0.271950 -1.189378 -0.439749
v 0.271950 0.810622 -0.439749
v 0.444837 -1.189378 -0.347339
v 0.444837 0.810622 -0.347339
v 0.596374 -1.189378 -0.222976
v 0.596374 0.810622 -0.222976
v 0.720737 -1.189378 -0.071439
v 0.720737 0.810622 -0.071439
v 0.813146 -1.189378 0.101447
v 0.813146 0.810622 0.101447
v 0.870052 -1.189378 0.289041
v 0.870052 0.810622 0.289041
v 0.889267 -1.189378 0.484131
v 0.889267 0.810622 0.484131
v 0.870052 -1.189378 0.679221
v 0.870052 0.810622 0.679221
v 0.813146 -1.189378 0.866814
v 0.813146 0.810622 0.866814
v 0.720737 -1.189378 1.039701
v 0.720737 0.810622 1.039701
v 0.596374 -1.189378 1.191238
v 0.596374 0.810622 1.191238
v 0.444837 -1.189378 1.315601
v 0.444837 0.810622 1.315601
v 0.271950 -1.189378 1.408010
v 0.271950 0.810622 1.408010
v 0.084357 -1.189378 1.464916
v 0.084357 0.810622 1.464916
v -0.110733 -1.189378 1.484131
v -0.110733 0.810622 1.484131
v -0.305824 -1.189378 1.464916
v -0.305824 0.810622 1.464916
v -0.493417 -1.189378 1.408010
v -0.493417 0.810622 1.408010
v -0.666304 -1.189378 1.315600
v -0.666304 0.810622 1.315600
v -0.817840 -1.189378 1.191237
v -0.817840 0.810622 1.191237
v -0.942203 -1.189378 1.039701
v -0.942203 0.810622 1.039701
v -1.034613 -1.189378 0.866814
v -1.034613 0.810622 0.866814
v -1.091519 -1.189378 0.679220
v -1.091519 0.810622 0.679220
v -1.110733 -1.189378 0.484130
v -1.110733 0.810622 0.484130
v -1.091518 -1.189378 0.289039
v -1.091518 0.810622 0.289039
v -1.034612 -1.189378 0.101446
v -1.034612 0.810622 0.101446
v -0.942202 -1.189378 -0.071440
v -0.942202 0.810622 -0.071440
v -0.817839 -1.189378 -0.222977
v -0.817839 0.810622 -0.222977
v -0.666302 -1.189378 -0.347340
v -0.666302 0.810622 -0.347340
v -0.493415 -1.189378 -0.439749
v -0.493415 0.810622 -0.439749
v -0.305822 -1.189378 -0.496655
v -0.305822 0.810622 -0.496655
vt 0.000000 0.000000
vt 1.000000 0.000000
vt 0.000000 1.000000
vt 0.500000 1.000000
vt 0.597545 0.990393
vt 0.402456 0.990393
vt 1.000000 1.000000
vt 0.691342 0.961940
vt 0.777785 0.915735
vt 0.853553 0.853553
vt 0.915735 0.777785
vt 0.961940 0.691342
vt 0.990393 0.597545
vt 1.000000 0.500000
vt 0.990393 0.402455
vt 0.961940 0.308658
vt 0.915735 0.222215
vt 0.853553 0.146447
vt 0.500000 0.000000
vt 0.691342 0.038060
vt 0.597545 0.009607
vt 0.777785 0.084265
vt 0.402455 0.009607
vt 0.308658 0.038060
vt 0.038060 0.308659
vt 0.146446 0.146447
vt 0.084265 0.222215
vt 0.222215 0.084265
vt 0.222215 0.915735
vt 0.084266 0.777786
vt 0.146447 0.853554
vt 0.038060 0.691342
vt 0.009607 0.402455
vt 0.000000 0.500000
vt 0.009607 0.597546
vt 0.308659 0.961940
vn 0.098017 0.000000 -0.995185
vn 0.290285 0.000000 -0.956940
vn 0.471397 0.000000 -0.881921
vn 0.634393 0.000000 -0.773010
vn 0.773010 0.000000 -0.634393
vn 0.881921 0.000000 -0.471397
vn 0.956940 0.000000 -0.290285
vn 0.995185 0.000000 -0.098017
vn 0.995185 0.000000 0.098017
vn 0.956940 0.000000 0.290285
vn 0.881921 0.000000 0.471397
vn 0.773011 0.000000 0.634393
vn 0.634394 0.000000 0.773010
vn 0.471396 0.000000 0.881922
vn 0.290285 0.000000 0.956940
vn 0.098017 0.000000 0.995185
vn -0.098018 0.000000 0.995185
vn -0.290285 0.000000 0.956940
vn -0.471397 0.000000 0.881921
vn -0.634394 0.000000 0.773010
vn -0.773011 0.000000 0.634393
vn -0.881922 0.000000 0.471396
vn -0.956941 0.000000 0.290284
vn -0.995185 0.000000 0.098016
vn -0.995185 0.000000 -0.098018
vn -0.956940 0.000000 -0.290286
vn -0.881921 0.000000 -0.471397
vn -0.773010 0.000000 -0.634394
vn -0.634392 0.000000 -0.773011
vn -0.471395 0.000000 -0.881922
vn 0.000000 1.000000 0.000000
vn -0.098017 0.000000 -0.995185
vn -0.290283 0.000000 -0.956941
vn 0.000000 -1.000000 0.000000
vn 0.634393 0.000000 0.773011
vn 0.471397 0.000000 0.881921
vn 0.000000 1.000000 -0.000003
vn 0.000000 1.000000 0.000002
vn 0.000000 1.000000 -0.000001
vn 0.000000 1.000000 -0.000004
vn 0.000000 1.000000 -0.000002
vn 0.000000 1.000000 0.000001
vn -0.098016 0.000000 -0.995185
vn 0.000000 -1.000000 0.000003
vn 0.000000 -1.000000 0.000002
vn 0.000000 -1.000000 -0.000001
vn 0.000000 -1.000000 0.000001
vn 0.000000 -1.000000 0.000004
vn 0.000000 -1.000000 -0.000005
vn 0.000000 -1.000000 -0.000002
usemtl Material.001
s off
f 1/1/1 2/2/1 3/3/1
f 3/1/2 4/2/2 5/3/2
f 5/1/3 6/2/3 7/3/3
f 7/1/4 8/2/4 9/3/4
f 9/1/5 10/2/5 11/3/5
f 11/1/6 12/2/6 13/3/6
f 13/1/7 14/2/7 15/3/7
f 15/1/8 16/2/8 17/3/8
f 17/1/9 18/2/9 19/3/9
f 19/1/10 20/2/10 21/3/10
f 21/1/11 22/2/11 23/3/11
f 23/1/12 24/2/12 25/3/12
f 25/1/13 26/2/13 27/3/13
f 27/1/14 28/2/14 29/3/14
f 29/1/15 30/2/15 31/3/15
f 31/1/16 32/2/16 33/3/16
f 33/1/17 34/2/17 35/3/17
f 35/1/18 36/2/18 37/3/18
f 37/1/19 38/2/19 39/3/19
f 39/1/20 40/2/20 41/3/20
f 41/1/21 42/2/21 43/3/21
f 43/1/22 44/2/22 45/3/22
f 45/1/23 46/2/23 47/3/23
f 47/1/24 48/2/24 49/3/24
f 49/1/25 50/2/25 51/3/25
f 51/1/26 52/2/26 53/3/26
f 53/1/27 54/2/27 55/3/27
f 55/1/28 56/2/28 57/3/28
f 57/1/29 58/2/29 59/3/29
f 59/1/30 60/2/30 61/3/30
f 4/4/31 2/5/31 6/6/31
f 63/1/32 64/2/32 1/3/32
f 61/1/33 62/2/33 63/3/33
f 1/4/34 3/5/34 63/6/34
f 2/2/1 4/7/1 3/3/1
f 4/2/2 6/7/2 5/3/2
f 6/2/3 8/7/3 7/3/3
f 8/2/4 10/7/4 9/3/4
f 10/2/5 12/7/5 11/3/5
f 12/2/6 14/7/6 13/3/6
f 14/2/7 16/7/7 15/3/7
f 16/2/8 18/7/8 17/3/8
f 18/2/9 20/7/9 19/3/9
f 20/2/10 22/7/10 21/3/10
f 22/2/11 24/7/11 23/3/11
f 24/2/12 26/7/12 25/3/12
f 26/2/35 28/7/35 27/3/35
f 28/2/36 30/7/36 29/3/36
f 30/2/15 32/7/15 31/3/15
f 32/2/16 34/7/16 33/3/16
f 34/2/17 36/7/17 35/3/17
f 36/2/18 38/7/18 37/3/18
f 38/2/19 40/7/19 39/3/19
f 40/2/20 42/7/20 41/3/20
f 42/2/21 44/7/21 43/3/21
f 44/2/22 46/7/22 45/3/22
f 46/2/23 48/7/23 47/3/23
f 48/2/24 50/7/24 49/3/24
f 50/2/25 52/7/25 51/3/25
f 52/2/26 54/7/26 53/3/26
f 54/2/27 56/7/27 55/3/27
f 56/2/28 58/7/28 57/3/28
f 58/2/29 60/7/29 59/3/29
f 60/2/30 62/7/30 61/3/30
f 2/5/31 64/8/31 6/6/31
f 64/8/37 62/9/37 6/6/37
f 62/9/38 60/10/38 6/6/38
f 60/10/39 58/11/39 6/6/39
f 58/11/38 56/12/38 6/6/38
f 56/12/31 54/13/31 6/6/31
f 54/13/31 52/14/31 6/6/31
f 52/14/39 50/15/39 6/6/39
f 50/15/38 48/16/38 6/6/38
f 48/16/39 46/17/39 6/6/39
f 46/17/31 44/18/31 6/6/31
f 36/19/40 40/20/40 38/21/40
f 42/22/31 40/20/31 36/19/31
f 44/18/31 42/22/31 6/6/31
f 42/22/31 36/19/31 6/6/31
f 36/19/31 34/23/31 6/6/31
f 34/23/31 32/24/31 6/6/31
f 24/25/31 28/26/31 26/27/31
f 30/28/31 28/26/31 24/25/31
f 10/29/41 14/30/41 12/31/41
f 10/29/42 16/32/42 14/30/42
f 32/24/31 30/28/31 6/6/31
f 30/28/31 24/25/31 6/6/31
f 24/25/31 22/33/31 6/6/31
f 22/33/31 20/34/31 6/6/31
f 20/34/31 18/35/31 6/6/31
f 18/35/31 16/32/31 6/6/31
f 16/32/31 10/29/31 8/36/31
f 6/6/31 16/32/31 8/36/31
f 64/2/43 2/7/43 1/3/43
f 62/2/33 64/7/33 63/3/33
f 3/5/34 5/8/34 63/6/34
f 5/8/44 7/9/44 63/6/44
f 7/9/34 9/10/34 63/6/34
f 9/10/45 11/11/45 63/6/45
f 11/11/34 13/12/34 63/6/34
f 13/12/34 15/13/34 63/6/34
f 15/13/46 17/14/46 63/6/46
f 17/14/47 19/15/47 63/6/47
f 19/15/34 21/16/34 63/6/34
f 21/16/34 23/17/34 63/6/34
f 23/17/46 25/18/46 63/6/46
f 39/28/48 35/23/48 37/24/48
f 39/28/49 33/19/49 35/23/49
f 39/28/47 31/21/47 33/19/47
f 51/35/34 47/33/34 49/34/34
f 51/35/34 45/25/34 47/33/34
f 53/32/34 45/25/34 51/35/34
f 53/32/34 43/27/34 45/25/34
f 57/31/50 53/32/50 55/30/50
f 57/31/34 43/27/34 53/32/34
f 63/6/48 59/29/48 61/36/48
f 63/6/34 25/18/34 59/29/34
f 25/18/34 27/22/34 59/29/34
f 27/22/34 29/20/34 59/29/34
f 29/20/34 31/21/34 39/28/34
f 59/29/34 29/20/34 39/28/34
f 57/31/34 59/29/34 43/27/34
f 59/29/34 39/28/34 41/26/34
f 43/27/34 59/29/34 41/26/34
